^C:\USERS\BHUSHAN\SOURCE\REPOS\PROJECTS\MATHCLIENT\MATHCLIENT\PCH.CPP
C:\USERS\BHUSHAN\SOURCE\REPOS\PROJECTS\MATHCLIENT\MATHCLIENT\DEBUG\MATHCLIENT.PCH
C:\USERS\BHUSHAN\SOURCE\REPOS\PROJECTS\MATHCLIENT\MATHCLIENT\DEBUG\VC141.PDB
C:\USERS\BHUSHAN\SOURCE\REPOS\PROJECTS\MATHCLIENT\MATHCLIENT\DEBUG\VC141.IDB
C:\USERS\BHUSHAN\SOURCE\REPOS\PROJECTS\MATHCLIENT\MATHCLIENT\DEBUG\PCH.OBJ
^C:\USERS\BHUSHAN\SOURCE\REPOS\PROJECTS\MATHCLIENT\MATHCLIENT\MATHCLIENT.CPP
C:\USERS\BHUSHAN\SOURCE\REPOS\PROJECTS\MATHCLIENT\MATHCLIENT\DEBUG\VC141.PDB
C:\USERS\BHUSHAN\SOURCE\REPOS\PROJECTS\MATHCLIENT\MATHCLIENT\DEBUG\VC141.IDB
C:\USERS\BHUSHAN\SOURCE\REPOS\PROJECTS\MATHCLIENT\MATHCLIENT\DEBUG\MATHCLIENT.OBJ
